﻿object={
	name="tree_jungle_01_c_generator_1_0"
	clamp_to_water_level=no
	render_under_water=no
	generated_content=yes
	layer="tree_high_layer"
	pdxmesh="tree_jungle_01_c_mesh"
	count=304
	transform="359.808075 0.000000 231.392242 0.000000 0.767380 0.000000 -0.641192 0.928151 0.928151 0.928151
353.628326 0.000000 232.821716 0.000000 0.937665 0.000000 0.347541 0.886442 0.886442 0.886442
350.687286 0.000000 236.147171 0.000000 0.362012 0.000000 0.932173 0.875726 0.875726 0.875726
354.712463 0.000000 235.981964 0.000000 0.409541 0.000000 0.912292 0.825141 0.825141 0.825141
1792.153687 0.000000 3.293119 0.000000 0.722887 0.000000 -0.690966 0.906856 0.906856 0.906856
1801.456421 0.000000 10.245461 0.000000 0.602783 0.000000 0.797905 0.895849 0.895849 0.895849
1798.569580 0.000000 4.687457 0.000000 0.291159 0.000000 0.956675 0.882806 0.882806 0.882806
2019.253540 0.000000 0.562499 0.000000 0.455539 0.000000 -0.890216 0.917267 0.917267 0.917267
1808.847656 0.000000 273.355072 0.000000 0.576598 0.000000 -0.817028 0.917189 0.917189 0.917189
5374.940430 0.000000 878.647278 0.000000 0.338074 0.000000 0.941120 0.833891 0.833891 0.833891
5300.032715 0.000000 942.100525 0.000000 0.186008 0.000000 -0.982548 0.921763 0.921763 0.921763
5285.343262 0.000000 953.206116 0.000000 0.507290 0.000000 0.861775 0.839316 0.839316 0.839316
5299.868164 0.000000 946.326904 0.000000 0.432633 0.000000 0.901570 0.811656 0.811656 0.811656
5295.067383 0.000000 957.982422 0.000000 0.719485 0.000000 0.694508 0.843074 0.843074 0.843074
5302.118164 0.000000 944.306030 0.000000 0.330723 0.000000 0.943728 0.830699 0.830699 0.830699
5284.797363 0.000000 950.559753 0.000000 0.875282 0.000000 -0.483613 0.939696 0.939696 0.939696
5295.053223 0.000000 949.012451 0.000000 0.906516 0.000000 0.422172 0.855932 0.855932 0.855932
5293.742188 0.000000 959.438721 0.000000 0.567995 0.000000 -0.823032 1.019467 1.019467 1.019467
5300.075195 0.000000 944.508667 0.000000 0.758125 0.000000 -0.652110 0.990978 0.990978 0.990978
5308.663574 0.000000 958.233154 0.000000 0.923220 0.000000 0.384271 0.838851 0.838851 0.838851
5370.621094 0.000000 922.374268 0.000000 0.026630 0.000000 0.999645 0.761217 0.761217 0.761217
5319.912598 0.000000 945.649475 0.000000 0.885264 0.000000 0.465089 0.843481 0.843481 0.843481
5372.621582 0.000000 931.933167 0.000000 0.189995 0.000000 0.981785 0.853501 0.853501 0.853501
5316.263184 0.000000 949.202087 0.000000 0.849427 0.000000 -0.527706 0.956207 0.956207 0.956207
5320.612305 0.000000 950.607788 0.000000 0.475005 0.000000 -0.879983 0.979770 0.979770 0.979770
5323.410156 0.000000 941.435242 0.000000 0.558638 0.000000 -0.829411 0.921976 0.921976 0.921976
5336.547363 0.000000 955.866028 0.000000 0.136486 0.000000 -0.990642 1.073976 1.073976 1.073976
5333.122070 0.000000 950.127380 0.000000 0.689160 0.000000 -0.724609 0.978304 0.978304 0.978304
5367.256348 0.000000 900.335571 0.000000 0.996798 0.000000 0.079957 0.896583 0.896583 0.896583
5360.780273 0.000000 940.286804 0.000000 0.772842 0.000000 0.634598 0.873740 0.873740 0.873740
5342.211914 0.000000 956.751038 0.000000 0.828638 0.000000 -0.559784 0.961407 0.961407 0.961407
5316.760254 0.000000 946.074585 0.000000 0.960823 0.000000 -0.277163 0.913882 0.913882 0.913882
5312.985840 0.000000 949.500854 0.000000 0.842034 0.000000 -0.539424 0.938405 0.938405 0.938405
5317.877441 0.000000 951.661438 0.000000 0.742793 0.000000 -0.669521 0.967578 0.967578 0.967578
5318.892090 0.000000 948.389648 0.000000 0.944733 0.000000 -0.327840 0.938275 0.938275 0.938275
5313.317383 0.000000 944.679016 0.000000 0.888723 0.000000 0.458444 0.853987 0.853987 0.853987
5369.774414 0.000000 900.078491 0.000000 0.536619 0.000000 -0.843825 1.012836 1.012836 1.012836
5368.054688 0.000000 945.629456 0.000000 0.390255 0.000000 -0.920707 1.031431 1.031431 1.031431
5367.330566 0.000000 914.197205 0.000000 0.920568 0.000000 -0.390582 0.947785 0.947785 0.947785
5372.149902 0.000000 937.457703 0.000000 0.997581 0.000000 0.069507 0.890778 0.890778 0.890778
5373.836914 0.000000 933.802368 0.000000 0.591329 0.000000 0.806430 0.796718 0.796718 0.796718
5320.595215 0.000000 943.583862 0.000000 0.998767 0.000000 0.049641 0.895313 0.895313 0.895313
5373.959473 0.000000 937.982605 0.000000 0.427445 0.000000 -0.904041 1.049685 1.049685 1.049685
5369.762207 0.000000 973.291138 0.000000 0.839737 0.000000 -0.542993 0.907738 0.907738 0.907738
5373.365723 0.000000 970.033447 0.000000 0.938736 0.000000 0.344638 0.882607 0.882607 0.882607
5369.454590 0.000000 977.557251 0.000000 0.592326 0.000000 0.805698 0.862110 0.862110 0.862110
5373.230469 0.000000 963.922668 0.000000 0.543325 0.000000 -0.839523 0.949254 0.949254 0.949254
5370.331543 0.000000 970.318787 0.000000 0.712562 0.000000 0.701609 0.817877 0.817877 0.817877
5363.956055 0.000000 973.045044 0.000000 0.752481 0.000000 -0.658614 0.987235 0.987235 0.987235
5367.175781 0.000000 973.457397 0.000000 0.832330 0.000000 -0.554280 0.947522 0.947522 0.947522
5370.741211 0.000000 975.504272 0.000000 0.526810 0.000000 0.849983 0.667161 0.667161 0.667161
5371.722656 0.000000 968.355652 0.000000 0.857275 0.000000 0.514859 0.834378 0.834378 0.834378
5365.566895 0.000000 973.232605 0.000000 0.218724 0.000000 0.975787 0.596604 0.596604 0.596604
5370.951172 0.000000 974.047607 0.000000 0.677934 0.000000 0.735122 0.710730 0.710730 0.710730
5412.548340 0.000000 813.730103 0.000000 0.637963 0.000000 -0.770067 0.957272 0.957272 0.957272
5435.801270 0.000000 811.621948 0.000000 0.950892 0.000000 0.309523 0.876666 0.876666 0.876666
5437.510742 0.000000 818.898682 0.000000 0.282825 0.000000 -0.959171 1.029831 1.029831 1.029831
5438.702637 0.000000 823.882324 0.000000 0.922516 0.000000 0.385958 0.886645 0.886645 0.886645
5413.327637 0.000000 825.237366 0.000000 0.965456 0.000000 0.260565 0.894077 0.894077 0.894077
5416.702637 0.000000 811.336182 0.000000 0.872385 0.000000 -0.488820 0.951641 0.951641 0.951641
5420.867188 0.000000 772.738525 0.000000 0.835930 0.000000 -0.548837 0.935245 0.935245 0.935245
5412.625977 0.000000 810.091736 0.000000 0.985385 0.000000 -0.170341 0.911538 0.911538 0.911538
5420.730957 0.000000 814.206421 0.000000 0.913890 0.000000 0.405961 0.853976 0.853976 0.853976
5436.235352 0.000000 816.136108 0.000000 0.208649 0.000000 0.977991 0.765486 0.765486 0.765486
5415.652344 0.000000 813.925415 0.000000 0.907002 0.000000 0.421127 0.874606 0.874606 0.874606
5436.222168 0.000000 821.274597 0.000000 0.712514 0.000000 -0.701658 0.983878 0.983878 0.983878
5411.321777 0.000000 827.009583 0.000000 0.616698 0.000000 -0.787200 0.967197 0.967197 0.967197
5414.271973 0.000000 811.995850 0.000000 0.030304 0.000000 0.999541 0.595405 0.595405 0.595405
5418.990234 0.000000 810.410645 0.000000 0.553977 0.000000 -0.832532 0.972936 0.972936 0.972936
5410.796875 0.000000 831.058655 0.000000 0.760241 0.000000 -0.649641 0.963552 0.963552 0.963552
5414.833008 0.000000 809.597412 0.000000 0.227517 0.000000 -0.973774 1.047671 1.047671 1.047671
5422.524902 0.000000 773.696106 0.000000 0.494656 0.000000 0.869089 0.677522 0.677522 0.677522
5415.352539 0.000000 810.948242 0.000000 0.436849 0.000000 -0.899535 1.121197 1.121197 1.121197
5498.605469 0.000000 794.405518 0.000000 0.967308 0.000000 -0.253605 0.916131 0.916131 0.916131
5484.979004 0.000000 820.267761 0.000000 0.408585 0.000000 0.912720 0.879331 0.879331 0.879331
5474.831543 0.000000 768.375000 0.000000 0.987343 0.000000 -0.158600 0.915746 0.915746 0.915746
5439.836914 0.000000 818.929077 0.000000 0.979230 0.000000 -0.202755 0.908257 0.908257 0.908257
5473.586914 0.000000 828.965515 0.000000 0.609805 0.000000 0.792552 0.877385 0.877385 0.877385
5470.413086 0.000000 779.224854 0.000000 0.857006 0.000000 -0.515307 0.974200 0.974200 0.974200
5464.621094 0.000000 785.764893 0.000000 0.464065 0.000000 0.885801 0.755739 0.755739 0.755739
5501.117188 0.000000 784.278503 0.000000 0.845669 0.000000 -0.533707 0.932889 0.932889 0.932889
5466.664551 0.000000 779.705139 0.000000 0.847706 0.000000 0.530467 0.861053 0.861053 0.861053
5474.316406 0.000000 771.518250 0.000000 0.790184 0.000000 0.612870 0.811065 0.811065 0.811065
5474.534180 0.000000 775.698853 0.000000 0.997792 0.000000 -0.066424 0.902987 0.902987 0.902987
5476.669434 0.000000 829.242188 0.000000 0.115127 0.000000 -0.993351 1.050427 1.050427 1.050427
5484.630859 0.000000 817.250977 0.000000 0.934584 0.000000 0.355743 0.867311 0.867311 0.867311
5465.139648 0.000000 782.346130 0.000000 0.126960 0.000000 0.991908 0.818916 0.818916 0.818916
5483.962891 0.000000 823.080688 0.000000 0.222755 0.000000 0.974874 0.794137 0.794137 0.794137
5497.059082 0.000000 796.985901 0.000000 0.187152 0.000000 -0.982331 1.021150 1.021150 1.021150
5464.931152 0.000000 775.126587 0.000000 0.992110 0.000000 0.125372 0.890962 0.890962 0.890962
5491.536621 0.000000 795.509888 0.000000 0.999926 0.000000 0.012141 0.899291 0.899291 0.899291
5498.199707 0.000000 788.156799 0.000000 0.036018 0.000000 0.999351 0.803443 0.803443 0.803443
5470.047363 0.000000 781.633728 0.000000 0.898141 0.000000 -0.439708 0.981836 0.981836 0.981836
5472.640625 0.000000 779.891602 0.000000 0.243211 0.000000 -0.969973 1.111396 1.111396 1.111396
5482.506348 0.000000 821.428345 0.000000 0.495859 0.000000 0.868403 0.788907 0.788907 0.788907
5474.741699 0.000000 773.511658 0.000000 0.597413 0.000000 0.801933 0.785007 0.785007 0.785007
5468.117188 0.000000 781.066772 0.000000 0.911048 0.000000 0.412300 0.808332 0.808332 0.808332
5465.902832 0.000000 784.130493 0.000000 0.458608 0.000000 0.888639 0.754923 0.754923 0.754923
5475.636719 0.000000 770.198059 0.000000 0.498310 0.000000 0.866999 0.758561 0.758561 0.758561
5473.075195 0.000000 830.704468 0.000000 0.422597 0.000000 0.906318 0.762350 0.762350 0.762350
5471.836426 0.000000 781.463562 0.000000 0.299773 0.000000 -0.954011 1.127627 1.127627 1.127627
5466.904297 0.000000 780.903442 0.000000 0.996225 0.000000 -0.086813 0.923437 0.923437 0.923437
5410.839355 0.000000 832.359375 0.000000 0.477240 0.000000 -0.878773 1.001285 1.001285 1.001285
5410.866211 0.000000 842.941772 0.000000 0.011580 0.000000 0.999933 0.875476 0.875476 0.875476
5380.596680 0.000000 869.829041 0.000000 0.998605 0.000000 0.052798 0.898457 0.898457 0.898457
5401.048340 0.000000 887.588745 0.000000 0.999917 0.000000 -0.012883 0.901505 0.901505 0.901505
5378.105957 0.000000 861.339050 0.000000 0.999670 0.000000 -0.025706 0.902022 0.902022 0.902022
5383.510254 0.000000 865.980225 0.000000 0.634891 0.000000 0.772602 0.852388 0.852388 0.852388
5415.578613 0.000000 843.831848 0.000000 0.776681 0.000000 -0.629894 0.933684 0.933684 0.933684
5404.012207 0.000000 884.206543 0.000000 0.582926 0.000000 -0.812525 0.963933 0.963933 0.963933
5393.718262 0.000000 845.105042 0.000000 0.947648 0.000000 0.319318 0.889776 0.889776 0.889776
5431.248535 0.000000 836.351196 0.000000 0.972192 0.000000 0.234185 0.891502 0.891502 0.891502
5408.006348 0.000000 847.200500 0.000000 0.237879 0.000000 -0.971295 1.025570 1.025570 1.025570
5375.551270 0.000000 878.232178 0.000000 0.992451 0.000000 -0.122645 0.906630 0.906630 0.906630
5391.125977 0.000000 868.695312 0.000000 0.901394 0.000000 0.432999 0.883901 0.883901 0.883901
5431.851074 0.000000 839.990173 0.000000 0.584181 0.000000 -0.811624 0.955319 0.955319 0.955319
5424.400391 0.000000 837.548828 0.000000 0.971741 0.000000 -0.236048 0.910173 0.910173 0.910173
5381.272949 0.000000 862.534058 0.000000 0.139112 0.000000 0.990277 0.748856 0.748856 0.748856
5379.189453 0.000000 887.679016 0.000000 0.094402 0.000000 0.995534 0.787223 0.787223 0.787223
5417.606445 0.000000 845.516479 0.000000 0.682489 0.000000 0.730896 0.756353 0.756353 0.756353
5429.065918 0.000000 834.839783 0.000000 0.799194 0.000000 0.601073 0.855084 0.855084 0.855084
5378.310547 0.000000 883.033691 0.000000 0.886226 0.000000 0.463253 0.844806 0.844806 0.844806
5388.912598 0.000000 870.748169 0.000000 0.944890 0.000000 0.327388 0.879016 0.879016 0.879016
5433.766602 0.000000 836.094116 0.000000 0.221362 0.000000 0.975192 0.754662 0.754662 0.754662
5413.337402 0.000000 842.933716 0.000000 0.232579 0.000000 -0.972577 1.023082 1.023082 1.023082
5395.894043 0.000000 845.463745 0.000000 0.137420 0.000000 0.990513 0.735797 0.735797 0.735797
5394.557617 0.000000 843.080322 0.000000 0.015863 0.000000 0.999874 0.641461 0.641461 0.641461
5381.676758 0.000000 871.649780 0.000000 0.999992 0.000000 0.004063 0.899589 0.899589 0.899589
5411.418945 0.000000 844.617493 0.000000 0.524191 0.000000 -0.851601 1.055696 1.055696 1.055696
5380.064453 0.000000 861.405701 0.000000 0.561399 0.000000 -0.827545 1.033596 1.033596 1.033596
5414.057617 0.000000 844.384583 0.000000 0.736856 0.000000 0.676049 0.773227 0.773227 0.773227
5412.653809 0.000000 844.108643 0.000000 0.070982 0.000000 -0.997478 1.243718 1.243718 1.243718
5474.831543 0.000000 832.359375 0.000000 0.999368 0.000000 0.035546 0.898642 0.898642 0.898642
5441.653320 0.000000 841.258728 0.000000 0.787053 0.000000 -0.616885 0.968710 0.968710 0.968710
5446.160645 0.000000 846.700439 0.000000 0.851173 0.000000 0.524886 0.857786 0.857786 0.857786
5441.680664 0.000000 852.375305 0.000000 0.296099 0.000000 0.955157 0.837212 0.837212 0.837212
5493.448242 0.000000 847.577942 0.000000 0.001194 0.000000 0.999999 0.780091 0.780091 0.780091
5501.351562 0.000000 861.698303 0.000000 0.833233 0.000000 0.552922 0.880254 0.880254 0.880254
5497.693359 0.000000 854.737610 0.000000 0.961704 0.000000 -0.274092 0.916844 0.916844 0.916844
5501.995117 0.000000 856.112610 0.000000 0.947282 0.000000 -0.320401 0.920519 0.920519 0.920519
5474.316406 0.000000 835.502625 0.000000 0.696732 0.000000 -0.717331 0.989872 0.989872 0.989872
5445.391602 0.000000 853.237305 0.000000 0.429434 0.000000 -0.903098 0.978495 0.978495 0.978495
5441.944824 0.000000 855.097656 0.000000 0.993981 0.000000 0.109556 0.890380 0.890380 0.890380
5493.009766 0.000000 850.206177 0.000000 0.621405 0.000000 -0.783489 0.989003 0.989003 0.989003
5499.989746 0.000000 855.015930 0.000000 0.725719 0.000000 0.687991 0.838629 0.838629 0.838629
5443.367676 0.000000 853.611145 0.000000 0.680759 0.000000 -0.732508 0.983112 0.983112 0.983112
5441.352051 0.000000 843.370911 0.000000 0.941496 0.000000 -0.337023 0.938619 0.938619 0.938619
5475.636719 0.000000 834.182434 0.000000 0.386724 0.000000 0.922195 0.768139 0.768139 0.768139
5473.719238 0.000000 833.819397 0.000000 0.611690 0.000000 -0.791097 1.012778 1.012778 1.012778
5492.594727 0.000000 848.689453 0.000000 0.703312 0.000000 -0.710882 1.157626 1.157626 1.157626
5534.642578 0.000000 887.730652 0.000000 0.487608 0.000000 0.873063 0.854686 0.854686 0.854686
5548.971191 0.000000 884.252136 0.000000 0.991927 0.000000 -0.126810 0.900571 0.900571 0.900571
5563.878906 0.000000 892.517578 0.000000 0.852708 0.000000 0.522388 0.858010 0.858010 0.858010
5503.558594 0.000000 856.675415 0.000000 0.296537 0.000000 0.955021 0.882882 0.882882 0.882882
5504.041992 0.000000 865.962524 0.000000 0.844529 0.000000 0.535511 0.880954 0.880954 0.880954
5565.495117 0.000000 882.883057 0.000000 0.997645 0.000000 0.068594 0.886889 0.886889 0.886889
5548.274902 0.000000 890.018616 0.000000 0.531458 0.000000 0.847085 0.831887 0.831887 0.831887
5537.579102 0.000000 892.949890 0.000000 0.191708 0.000000 -0.981452 1.212694 1.212694 1.212694
5541.312012 0.000000 889.221741 0.000000 0.796651 0.000000 -0.604439 0.916042 0.916042 0.916042
5505.672852 0.000000 852.375305 0.000000 0.851029 0.000000 0.525119 0.888820 0.888820 0.888820
5522.277344 0.000000 861.639587 0.000000 0.964150 0.000000 -0.265358 0.927156 0.927156 0.927156
5532.038574 0.000000 890.493713 0.000000 0.950095 0.000000 -0.311960 0.908554 0.908554 0.908554
5507.744629 0.000000 864.813965 0.000000 0.719393 0.000000 -0.694604 1.024223 1.024223 1.024223
5550.959473 0.000000 887.333313 0.000000 0.535365 0.000000 0.844621 0.800558 0.800558 0.800558
5534.188477 0.000000 892.766663 0.000000 0.958061 0.000000 -0.286565 0.918285 0.918285 0.918285
5540.661621 0.000000 893.226562 0.000000 0.236653 0.000000 0.971594 0.840148 0.840148 0.840148
5564.219727 0.000000 880.120483 0.000000 0.462287 0.000000 0.886730 0.775069 0.775069 0.775069
5536.467773 0.000000 890.202820 0.000000 0.997419 0.000000 0.071807 0.889342 0.889342 0.889342
5551.208008 0.000000 890.422180 0.000000 0.107315 0.000000 -0.994225 1.057815 1.057815 1.057815
5509.383789 0.000000 853.237305 0.000000 0.941428 0.000000 0.337215 0.869859 0.869859 0.869859
5562.475098 0.000000 882.523193 0.000000 0.318903 0.000000 0.947787 0.829997 0.829997 0.829997
5503.377930 0.000000 859.780579 0.000000 0.991393 0.000000 -0.130922 0.905900 0.905900 0.905900
5558.086914 0.000000 880.321655 0.000000 0.994720 0.000000 -0.102627 0.910395 0.910395 0.910395
5564.206543 0.000000 885.258972 0.000000 0.671700 0.000000 -0.740823 0.974983 0.974983 0.974983
5521.177246 0.000000 863.833130 0.000000 0.821471 0.000000 -0.570250 1.013165 1.013165 1.013165
5560.031250 0.000000 881.645081 0.000000 0.993791 0.000000 -0.111266 0.913278 0.913278 0.913278
5506.357422 0.000000 866.470947 0.000000 0.431060 0.000000 -0.902323 1.013762 1.013762 1.013762
5520.633789 0.000000 860.266479 0.000000 0.881297 0.000000 -0.472563 0.972990 0.972990 0.972990
5507.359863 0.000000 853.611145 0.000000 0.999878 0.000000 0.015614 0.898211 0.898211 0.898211
5505.150391 0.000000 859.677734 0.000000 0.966102 0.000000 0.258162 0.868905 0.868905 0.868905
5562.334473 0.000000 880.648193 0.000000 0.786424 0.000000 0.617688 0.748906 0.748906 0.748906
5520.797852 0.000000 862.132690 0.000000 0.181397 0.000000 0.983410 0.641076 0.641076 0.641076
5572.881836 0.000000 890.352905 0.000000 0.846432 0.000000 0.532497 0.892430 0.892430 0.892430
5595.824707 0.000000 894.770203 0.000000 0.421563 0.000000 -0.906799 0.976549 0.976549 0.976549
5568.620117 0.000000 888.342834 0.000000 0.557223 0.000000 0.830363 0.875784 0.875784 0.875784
5589.803711 0.000000 894.504333 0.000000 0.091133 0.000000 -0.995839 1.079515 1.079515 1.079515
5596.030762 0.000000 890.493713 0.000000 0.990705 0.000000 0.136031 0.895708 0.895708 0.895708
5570.949219 0.000000 889.716614 0.000000 0.607472 0.000000 0.794341 0.671066 0.671066 0.671066
5570.010254 0.000000 888.593872 0.000000 0.681799 0.000000 -0.731540 1.104656 1.104656 1.104656
5384.145020 0.000000 916.109375 0.000000 0.609242 0.000000 0.792985 0.867081 0.867081 0.867081
5435.008301 0.000000 902.158752 0.000000 0.852841 0.000000 -0.522171 0.909875 0.909875 0.909875
5428.228027 0.000000 903.084473 0.000000 0.342869 0.000000 0.939383 0.880799 0.880799 0.880799
5436.991211 0.000000 896.587769 0.000000 0.631364 0.000000 -0.775487 0.923929 0.923929 0.923929
5378.105957 0.000000 925.323425 0.000000 0.008519 0.000000 -0.999964 1.001798 1.001798 1.001798
5388.941895 0.000000 916.564758 0.000000 0.547898 0.000000 -0.836545 1.015781 1.015781 1.015781
5406.420898 0.000000 907.193604 0.000000 0.076248 0.000000 0.997089 0.856347 0.856347 0.856347
5383.345703 0.000000 921.902954 0.000000 0.979363 0.000000 -0.202108 0.908688 0.908688 0.908688
5437.222656 0.000000 899.938293 0.000000 0.788445 0.000000 0.615106 0.859807 0.859807 0.859807
5380.790039 0.000000 923.886169 0.000000 0.845188 0.000000 0.534469 0.873393 0.873393 0.873393
5381.399414 0.000000 917.221680 0.000000 0.925275 0.000000 0.379296 0.861539 0.861539 0.861539
5383.951172 0.000000 919.089661 0.000000 0.439352 0.000000 -0.898315 0.952654 0.952654 0.952654
5406.845215 0.000000 904.373413 0.000000 0.989128 0.000000 0.147058 0.885408 0.885408 0.885408
5429.162598 0.000000 901.090149 0.000000 0.202315 0.000000 0.979320 0.755631 0.755631 0.755631
5435.679199 0.000000 898.539978 0.000000 0.782477 0.000000 -0.622680 0.986086 0.986086 0.986086
5395.453613 0.000000 903.059814 0.000000 0.936891 0.000000 0.349622 0.850244 0.850244 0.850244
5376.353027 0.000000 925.271729 0.000000 0.499324 0.000000 0.866415 0.758718 0.758718 0.758718
5384.637695 0.000000 920.711670 0.000000 0.455592 0.000000 -0.890189 1.043060 1.043060 1.043060
5462.817383 0.000000 901.084229 0.000000 0.759961 0.000000 0.649969 0.868204 0.868204 0.868204
5538.823730 0.000000 896.343750 0.000000 0.201583 0.000000 -0.979471 0.909220 0.909220 0.909220
5526.055664 0.000000 910.100952 0.000000 0.195010 0.000000 0.980801 0.850585 0.850585 0.850585
5524.108398 0.000000 913.624756 0.000000 0.717870 0.000000 -0.696177 0.934605 0.934605 0.934605
5541.501953 0.000000 898.295166 0.000000 0.810945 0.000000 -0.585122 0.951962 0.951962 0.951962
5538.308594 0.000000 899.487000 0.000000 0.999985 0.000000 0.005407 0.899648 0.899648 0.899648
5565.207031 0.000000 899.938293 0.000000 0.950430 0.000000 0.310938 0.876556 0.876556 0.876556
5542.758301 0.000000 895.835083 0.000000 0.067376 0.000000 0.997728 0.778395 0.778395 0.778395
5527.778809 0.000000 908.251282 0.000000 0.316209 0.000000 -0.948689 1.009454 1.009454 1.009454
5540.805176 0.000000 896.421997 0.000000 0.195890 0.000000 -0.980626 1.032715 1.032715 1.032715
5524.565918 0.000000 911.489929 0.000000 0.224818 0.000000 -0.974401 1.035896 1.035896 1.035896
5626.589844 0.000000 922.374268 0.000000 0.997141 0.000000 0.075562 0.893032 0.893032 0.893032
5588.894531 0.000000 896.135254 0.000000 0.451570 0.000000 -0.892236 0.934674 0.934674 0.934674
5592.335449 0.000000 918.113403 0.000000 0.999266 0.000000 0.038308 0.896298 0.896298 0.896298
5613.458008 0.000000 926.067627 0.000000 0.959094 0.000000 0.283089 0.881298 0.881298 0.881298
5596.824707 0.000000 897.504883 0.000000 0.456964 0.000000 -0.889485 1.060100 1.060100 1.060100
5579.178223 0.000000 911.209839 0.000000 0.974877 0.000000 0.222746 0.893943 0.893943 0.893943
5609.928711 0.000000 943.616028 0.000000 0.484231 0.000000 0.874940 0.873670 0.873670 0.873670
5600.015137 0.000000 901.826416 0.000000 0.423370 0.000000 -0.905957 0.981509 0.981509 0.981509
5617.221680 0.000000 928.467163 0.000000 0.628211 0.000000 0.778043 0.801843 0.801843 0.801843
5598.397461 0.000000 907.193604 0.000000 0.462026 0.000000 0.886866 0.848544 0.848544 0.848544
5603.333984 0.000000 932.921997 0.000000 0.973269 0.000000 -0.229669 0.907810 0.907810 0.907810
5592.778320 0.000000 897.443787 0.000000 0.538406 0.000000 -0.842686 0.990078 0.990078 0.990078
5594.648926 0.000000 907.673889 0.000000 0.969577 0.000000 0.244786 0.872773 0.872773 0.872773
5615.841797 0.000000 931.621460 0.000000 0.648549 0.000000 -0.761173 0.954427 0.954427 0.954427
5582.476074 0.000000 910.410583 0.000000 0.965154 0.000000 -0.261682 0.911898 0.911898 0.911898
5611.685059 0.000000 928.853638 0.000000 0.168220 0.000000 -0.985749 0.953544 0.953544 0.953544
5576.467285 0.000000 912.979370 0.000000 0.985799 0.000000 -0.167930 0.912890 0.912890 0.912890
5612.707520 0.000000 942.175171 0.000000 0.329152 0.000000 -0.944277 1.027686 1.027686 1.027686
5602.071777 0.000000 939.810059 0.000000 0.818935 0.000000 -0.573886 0.957683 0.957683 0.957683
5599.895996 0.000000 897.586731 0.000000 0.150816 0.000000 -0.988562 1.046705 1.046705 1.046705
5590.308105 0.000000 915.818848 0.000000 0.997129 0.000000 -0.075726 0.906472 0.906472 0.906472
5581.238281 0.000000 913.366028 0.000000 0.914894 0.000000 -0.403693 0.969094 0.969094 0.969094
5597.464355 0.000000 900.435242 0.000000 0.997286 0.000000 0.073631 0.895529 0.895529 0.895529
5598.821777 0.000000 904.373413 0.000000 0.892468 0.000000 0.451110 0.863195 0.863195 0.863195
5607.628906 0.000000 941.894165 0.000000 0.077507 0.000000 -0.996992 1.010718 1.010718 1.010718
5614.513672 0.000000 928.898438 0.000000 0.232141 0.000000 0.972682 0.773873 0.773873 0.773873
5603.782227 0.000000 935.527649 0.000000 0.931426 0.000000 -0.363930 0.932640 0.932640 0.932640
5596.288086 0.000000 905.884766 0.000000 0.918227 0.000000 0.396053 0.873466 0.873466 0.873466
5594.716797 0.000000 895.902222 0.000000 0.999488 0.000000 0.032007 0.897842 0.897842 0.897842
5590.442871 0.000000 912.569946 0.000000 0.629609 0.000000 0.776912 0.804040 0.804040 0.804040
5615.839355 0.000000 926.357422 0.000000 0.721685 0.000000 -0.692222 0.997920 0.997920 0.997920
5609.520508 0.000000 928.168762 0.000000 0.889024 0.000000 -0.457860 0.944881 0.944881 0.944881
5606.853027 0.000000 929.082642 0.000000 0.771458 0.000000 -0.636280 0.982129 0.982129 0.982129
5577.068848 0.000000 910.870239 0.000000 0.907513 0.000000 0.420023 0.853250 0.853250 0.853250
5597.776855 0.000000 902.482971 0.000000 0.961444 0.000000 0.275000 0.865572 0.865572 0.865572
5654.286133 0.000000 927.213135 0.000000 0.306018 0.000000 0.952026 0.863202 0.863202 0.863202
5642.685059 0.000000 933.589294 0.000000 0.421658 0.000000 0.906755 0.864280 0.864280 0.864280
5683.985840 0.000000 942.100525 0.000000 0.900778 0.000000 0.434281 0.852558 0.852558 0.852558
5671.159668 0.000000 935.220398 0.000000 0.828207 0.000000 -0.560423 0.906683 0.906683 0.906683
5639.569336 0.000000 939.273743 0.000000 0.896836 0.000000 -0.442364 0.907207 0.907207 0.907207
5652.814941 0.000000 922.045349 0.000000 0.676909 0.000000 -0.736067 0.952044 0.952044 0.952044
5634.074707 0.000000 925.323425 0.000000 0.498605 0.000000 -0.866829 1.001332 1.001332 1.001332
5688.981934 0.000000 943.476196 0.000000 0.453842 0.000000 0.891082 0.877761 0.877761 0.877761
5685.424805 0.000000 911.562317 0.000000 0.746803 0.000000 0.665045 0.882018 0.882018 0.882018
5658.880859 0.000000 928.031555 0.000000 0.557360 0.000000 -0.830271 0.950624 0.950624 0.950624
5672.671387 0.000000 939.304932 0.000000 0.773311 0.000000 0.634027 0.838278 0.838278 0.838278
5672.726074 0.000000 930.214294 0.000000 0.942047 0.000000 -0.335480 0.911530 0.911530 0.911530
5650.261719 0.000000 925.623962 0.000000 0.998211 0.000000 0.059796 0.896505 0.896505 0.896505
5683.821289 0.000000 946.326904 0.000000 0.428838 0.000000 -0.903381 0.978541 0.978541 0.978541
5681.011719 0.000000 924.164917 0.000000 0.068113 0.000000 -0.997678 1.051931 1.051931 1.051931
5637.300293 0.000000 906.953491 0.000000 0.999994 0.000000 -0.003578 0.900531 0.900531 0.900531
5689.669922 0.000000 918.721985 0.000000 0.928092 0.000000 0.372350 0.877711 0.877711 0.877711
5686.930176 0.000000 922.939941 0.000000 0.990827 0.000000 -0.135140 0.911269 0.911269 0.911269
5634.276855 0.000000 922.199280 0.000000 0.995370 0.000000 0.096115 0.894160 0.894160 0.894160
5631.387207 0.000000 926.856689 0.000000 0.502808 0.000000 -0.864398 0.949259 0.949259 0.949259
5673.729980 0.000000 933.115173 0.000000 0.266052 0.000000 0.963959 0.765481 0.765481 0.765481
5656.142090 0.000000 929.452393 0.000000 0.773181 0.000000 0.634186 0.841346 0.841346 0.841346
5670.742676 0.000000 932.338135 0.000000 0.754521 0.000000 0.656276 0.856571 0.856571 0.856571
5683.916992 0.000000 909.060669 0.000000 0.036744 0.000000 0.999325 0.827616 0.827616 0.827616
5680.918457 0.000000 912.078735 0.000000 0.819053 0.000000 -0.573717 0.942561 0.942561 0.942561
5692.190918 0.000000 949.243347 0.000000 0.618586 0.000000 0.785717 0.849228 0.849228 0.849228
5682.181152 0.000000 944.030090 0.000000 0.704451 0.000000 -0.709752 0.981564 0.981564 0.981564
5678.409668 0.000000 923.603760 0.000000 0.603203 0.000000 -0.797588 1.088782 1.088782 1.088782
5634.084961 0.000000 913.918884 0.000000 0.997103 0.000000 -0.076063 0.906843 0.906843 0.906843
5644.881348 0.000000 934.732544 0.000000 0.787329 0.000000 0.616533 0.816410 0.816410 0.816410
5649.501953 0.000000 931.982849 0.000000 0.556750 0.000000 -0.830680 0.988108 0.988108 0.988108
5688.524902 0.000000 921.046082 0.000000 0.837338 0.000000 0.546686 0.814226 0.814226 0.814226
5650.625000 0.000000 923.224670 0.000000 0.483403 0.000000 0.875398 0.813752 0.813752 0.813752
5674.958984 0.000000 938.379395 0.000000 0.723798 0.000000 -0.690012 0.999239 0.999239 0.999239
5652.501953 0.000000 925.182373 0.000000 0.425190 0.000000 0.905104 0.798294 0.798294 0.798294
5694.419434 0.000000 949.611938 0.000000 0.039730 0.000000 -0.999210 1.102967 1.102967 1.102967
5669.384277 0.000000 933.944031 0.000000 0.028194 0.000000 -0.999602 1.069837 1.069837 1.069837
5648.681641 0.000000 930.045837 0.000000 0.999784 0.000000 0.020761 0.898134 0.898134 0.898134
5636.786621 0.000000 909.067444 0.000000 0.889516 0.000000 -0.456903 0.940515 0.940515 0.940515
5640.810059 0.000000 937.524231 0.000000 0.041064 0.000000 -0.999157 1.064982 1.064982 1.064982
5673.011719 0.000000 934.842529 0.000000 0.752609 0.000000 -0.658467 0.993671 0.993671 0.993671
5682.421875 0.000000 910.571533 0.000000 0.849474 0.000000 -0.527630 0.962442 0.962442 0.962442
5648.240234 0.000000 920.576782 0.000000 0.999523 0.000000 0.030874 0.895143 0.895143 0.895143
5679.961426 0.000000 922.650330 0.000000 0.072282 0.000000 -0.997384 1.206384 1.206384 1.206384
5695.805664 0.000000 946.897827 0.000000 0.476533 0.000000 -0.879157 0.936200 0.936200 0.936200
5700.216309 0.000000 949.202087 0.000000 0.337195 0.000000 -0.941435 0.922053 0.922053 0.922053
5696.938965 0.000000 949.500854 0.000000 0.654490 0.000000 -0.756071 0.988607 0.988607 0.988607
5701.830566 0.000000 951.661438 0.000000 0.161421 0.000000 0.986886 0.767065 0.767065 0.767065
5699.150391 0.000000 951.663391 0.000000 0.957124 0.000000 0.289677 0.876888 0.876888 0.876888
5698.271484 0.000000 947.018066 0.000000 0.882211 0.000000 0.470855 0.850430 0.850430 0.850430
5695.343262 0.000000 949.057556 0.000000 0.881321 0.000000 -0.472518 0.965242 0.965242 0.965242
"}
